03/28/2015 18:37:04 --- Server host: 85.10.24.38 --- Transfered file: message1.xml --- Response/transfer time: 573 ms
03/28/2015 18:37:05 --- Server host: 85.10.24.38 --- Transfered file: message1.xml --- Response/transfer time: 568 ms
03/28/2015 18:37:06 --- Server host: 85.10.24.38 --- Transfered file: message1.xml --- Response/transfer time: 588 ms
03/28/2015 18:37:06 --- Server host: 85.10.24.38 --- Transfered file: message1.xml --- Response/transfer time: 590 ms
03/28/2015 18:37:07 --- Server host: 85.10.24.38 --- Transfered file: message1.xml --- Response/transfer time: 621 ms
03/28/2015 18:37:08 --- Server host: 85.10.24.38 --- Transfered file: message1.xml --- Response/transfer time: 558 ms
03/28/2015 18:37:09 --- Server host: 85.10.24.38 --- Transfered file: message1.xml --- Response/transfer time: 625 ms
03/28/2015 18:37:10 --- Server host: 85.10.24.38 --- Transfered file: message1.xml --- Response/transfer time: 558 ms
03/28/2015 18:37:10 --- Server host: 85.10.24.38 --- Transfered file: message1.xml --- Response/transfer time: 591 ms
03/28/2015 18:37:11 --- Server host: 85.10.24.38 --- Transfered file: message1.xml --- Response/transfer time: 612 ms

03/28/2015 18:37:19 --- Server host: 85.10.24.38 --- Transfered file: message2.xml --- Response/transfer time: 956 ms
03/28/2015 18:37:20 --- Server host: 85.10.24.38 --- Transfered file: message2.xml --- Response/transfer time: 944 ms
03/28/2015 18:37:22 --- Server host: 85.10.24.38 --- Transfered file: message2.xml --- Response/transfer time: 936 ms
03/28/2015 18:37:23 --- Server host: 85.10.24.38 --- Transfered file: message2.xml --- Response/transfer time: 968 ms
03/28/2015 18:37:24 --- Server host: 85.10.24.38 --- Transfered file: message2.xml --- Response/transfer time: 958 ms
03/28/2015 18:37:25 --- Server host: 85.10.24.38 --- Transfered file: message2.xml --- Response/transfer time: 964 ms
03/28/2015 18:37:26 --- Server host: 85.10.24.38 --- Transfered file: message2.xml --- Response/transfer time: 998 ms
03/28/2015 18:37:27 --- Server host: 85.10.24.38 --- Transfered file: message2.xml --- Response/transfer time: 958 ms
03/28/2015 18:37:29 --- Server host: 85.10.24.38 --- Transfered file: message2.xml --- Response/transfer time: 1135 ms
03/28/2015 18:37:30 --- Server host: 85.10.24.38 --- Transfered file: message2.xml --- Response/transfer time: 972 ms