04/03/2015 13:03:42 --- Server host: 85.10.24.38 --- Transfered file: message1.xml --- Response/transfer time: 576 ms
04/03/2015 13:03:43 --- Server host: 85.10.24.38 --- Transfered file: message1.xml --- Response/transfer time: 533 ms
04/03/2015 13:03:43 --- Server host: 85.10.24.38 --- Transfered file: message1.xml --- Response/transfer time: 572 ms
04/03/2015 13:03:44 --- Server host: 85.10.24.38 --- Transfered file: message1.xml --- Response/transfer time: 585 ms
04/03/2015 13:03:45 --- Server host: 85.10.24.38 --- Transfered file: message1.xml --- Response/transfer time: 537 ms
04/03/2015 13:03:46 --- Server host: 85.10.24.38 --- Transfered file: message1.xml --- Response/transfer time: 533 ms
04/03/2015 13:03:46 --- Server host: 85.10.24.38 --- Transfered file: message1.xml --- Response/transfer time: 574 ms
04/03/2015 13:03:47 --- Server host: 85.10.24.38 --- Transfered file: message1.xml --- Response/transfer time: 578 ms
04/03/2015 13:03:48 --- Server host: 85.10.24.38 --- Transfered file: message1.xml --- Response/transfer time: 557 ms
04/03/2015 13:03:49 --- Server host: 85.10.24.38 --- Transfered file: message1.xml --- Response/transfer time: 561 ms
04/03/2015 13:03:56 --- Server host: 85.10.24.38 --- Transfered file: message2.xml --- Response/transfer time: 1118 ms
04/03/2015 13:03:57 --- Server host: 85.10.24.38 --- Transfered file: message2.xml --- Response/transfer time: 974 ms
04/03/2015 13:03:58 --- Server host: 85.10.24.38 --- Transfered file: message2.xml --- Response/transfer time: 968 ms
04/03/2015 13:03:59 --- Server host: 85.10.24.38 --- Transfered file: message2.xml --- Response/transfer time: 981 ms
04/03/2015 13:04:00 --- Server host: 85.10.24.38 --- Transfered file: message2.xml --- Response/transfer time: 907 ms
04/03/2015 13:04:01 --- Server host: 85.10.24.38 --- Transfered file: message2.xml --- Response/transfer time: 920 ms
04/03/2015 13:04:03 --- Server host: 85.10.24.38 --- Transfered file: message2.xml --- Response/transfer time: 945 ms
04/03/2015 13:04:04 --- Server host: 85.10.24.38 --- Transfered file: message2.xml --- Response/transfer time: 966 ms
04/03/2015 13:04:05 --- Server host: 85.10.24.38 --- Transfered file: message2.xml --- Response/transfer time: 906 ms
04/03/2015 13:04:06 --- Server host: 85.10.24.38 --- Transfered file: message2.xml --- Response/transfer time: 922 ms
04/03/2015 13:04:12 --- Server host: 85.10.24.38 --- Transfered file: message3.xml --- Response/transfer time: 200 ms
04/03/2015 13:04:12 --- Server host: 85.10.24.38 --- Transfered file: message3.xml --- Response/transfer time: 195 ms
04/03/2015 13:04:12 --- Server host: 85.10.24.38 --- Transfered file: message3.xml --- Response/transfer time: 185 ms
04/03/2015 13:04:13 --- Server host: 85.10.24.38 --- Transfered file: message3.xml --- Response/transfer time: 189 ms
04/03/2015 13:04:13 --- Server host: 85.10.24.38 --- Transfered file: message3.xml --- Response/transfer time: 189 ms
04/03/2015 13:04:14 --- Server host: 85.10.24.38 --- Transfered file: message3.xml --- Response/transfer time: 202 ms
04/03/2015 13:04:14 --- Server host: 85.10.24.38 --- Transfered file: message3.xml --- Response/transfer time: 187 ms
04/03/2015 13:04:14 --- Server host: 85.10.24.38 --- Transfered file: message3.xml --- Response/transfer time: 237 ms
04/03/2015 13:04:15 --- Server host: 85.10.24.38 --- Transfered file: message3.xml --- Response/transfer time: 193 ms
04/03/2015 13:04:15 --- Server host: 85.10.24.38 --- Transfered file: message3.xml --- Response/transfer time: 192 ms
04/03/2015 12:44:42 --- Server host: 89.142.53.241 --- Transfered file: mesage1.xml --- Response/transfer time: 568 ms
04/03/2015 12:44:42 --- Server host: 89.142.53.241 --- Transfered file: mesage1.xml --- Response/transfer time: 377 ms
04/03/2015 12:44:43 --- Server host: 89.142.53.241 --- Transfered file: mesage1.xml --- Response/transfer time: 392 ms
04/03/2015 12:44:43 --- Server host: 89.142.53.241 --- Transfered file: mesage1.xml --- Response/transfer time: 385 ms
04/03/2015 12:44:44 --- Server host: 89.142.53.241 --- Transfered file: mesage1.xml --- Response/transfer time: 360 ms
04/03/2015 12:44:45 --- Server host: 89.142.53.241 --- Transfered file: mesage1.xml --- Response/transfer time: 382 ms
04/03/2015 12:44:45 --- Server host: 89.142.53.241 --- Transfered file: mesage1.xml --- Response/transfer time: 374 ms
04/03/2015 12:44:46 --- Server host: 89.142.53.241 --- Transfered file: mesage1.xml --- Response/transfer time: 370 ms
04/03/2015 12:44:46 --- Server host: 89.142.53.241 --- Transfered file: mesage1.xml --- Response/transfer time: 370 ms
04/03/2015 12:44:47 --- Server host: 89.142.53.241 --- Transfered file: mesage1.xml --- Response/transfer time: 369 ms
04/03/2015 12:44:52 --- Server host: 89.142.53.241 --- Transfered file: mesage2.xml --- Response/transfer time: 350 ms
04/03/2015 12:44:52 --- Server host: 89.142.53.241 --- Transfered file: mesage2.xml --- Response/transfer time: 375 ms
04/03/2015 12:44:53 --- Server host: 89.142.53.241 --- Transfered file: mesage2.xml --- Response/transfer time: 378 ms
04/03/2015 12:44:54 --- Server host: 89.142.53.241 --- Transfered file: mesage2.xml --- Response/transfer time: 385 ms
04/03/2015 12:44:54 --- Server host: 89.142.53.241 --- Transfered file: mesage2.xml --- Response/transfer time: 383 ms
04/03/2015 12:44:55 --- Server host: 89.142.53.241 --- Transfered file: mesage2.xml --- Response/transfer time: 352 ms
04/03/2015 12:44:55 --- Server host: 89.142.53.241 --- Transfered file: mesage2.xml --- Response/transfer time: 354 ms
04/03/2015 12:44:56 --- Server host: 89.142.53.241 --- Transfered file: mesage2.xml --- Response/transfer time: 352 ms
04/03/2015 12:44:57 --- Server host: 89.142.53.241 --- Transfered file: mesage2.xml --- Response/transfer time: 347 ms
04/03/2015 12:44:57 --- Server host: 89.142.53.241 --- Transfered file: mesage2.xml --- Response/transfer time: 361 ms
04/03/2015 12:45:03 --- Server host: 89.142.53.241 --- Transfered file: mesage3.xml --- Response/transfer time: 355 ms
04/03/2015 12:45:03 --- Server host: 89.142.53.241 --- Transfered file: mesage3.xml --- Response/transfer time: 365 ms
04/03/2015 12:45:04 --- Server host: 89.142.53.241 --- Transfered file: mesage3.xml --- Response/transfer time: 348 ms
04/03/2015 12:45:04 --- Server host: 89.142.53.241 --- Transfered file: mesage3.xml --- Response/transfer time: 364 ms
04/03/2015 12:45:05 --- Server host: 89.142.53.241 --- Transfered file: mesage3.xml --- Response/transfer time: 353 ms
04/03/2015 12:45:06 --- Server host: 89.142.53.241 --- Transfered file: mesage3.xml --- Response/transfer time: 362 ms
04/03/2015 12:45:06 --- Server host: 89.142.53.241 --- Transfered file: mesage3.xml --- Response/transfer time: 348 ms
04/03/2015 12:45:07 --- Server host: 89.142.53.241 --- Transfered file: mesage3.xml --- Response/transfer time: 385 ms
04/03/2015 12:45:07 --- Server host: 89.142.53.241 --- Transfered file: mesage3.xml --- Response/transfer time: 361 ms
04/03/2015 12:45:08 --- Server host: 89.142.53.241 --- Transfered file: mesage3.xml --- Response/transfer time: 373 ms